<svg xmlns="http://www.w3.org/2000/svg" xmlns:xlink="http://www.w3.org/1999/xlink" width="172" height="18"
	role="img" aria-label="release-nightly: running">
	<title>release-nightly: running</title>
	<linearGradient id="s" x2="0" y2="100%">
		<stop offset="0" stop-color="#fff" stop-opacity=".7" />
		<stop offset=".1" stop-color="#aaa" stop-opacity=".1" />
		<stop offset=".9" stop-color="#000" stop-opacity=".3" />
		<stop offset="1" stop-color="#000" stop-opacity=".5" />
	</linearGradient>
	<clipPath id="r">
		<rect width="172" height="18" rx="4" fill="#fff" />
	</clipPath>
	<g clip-path="url(#r)">
		<rect width="114" height="18" fill="#555" />
		<rect x="114" width="58" height="18" fill="#dfb317" />
		<rect width="172" height="18" fill="url(#s)" />
	</g>
	<g fill="#fff" text-anchor="middle" font-family="Geneva,DejaVu Sans,sans-serif" text-rendering="geometricPrecision"
		font-size="110"><text aria-hidden="true" x="580" y="140" fill="#010101" fill-opacity=".3"
			transform="scale(.1)" textLength="997">release-nightly</text><text x="580" y="130"
			transform="scale(.1)" fill="#fff" textLength="997">release-nightly</text><text aria-hidden="true"
			x="1420" y="140" fill="#010101" fill-opacity=".3" transform="scale(.1)"
			textLength="465">running</text><text x="1420" y="130" transform="scale(.1)"
			fill="#fff" textLength="465">running</text></g>
</svg>
